<?xml version="1.0" encoding="UTF-8" standalone="no"?>
<svg
   xmlns:dc="http://purl.org/dc/elements/1.1/"
   xmlns:cc="http://creativecommons.org/ns#"
   xmlns:rdf="http://www.w3.org/1999/02/22-rdf-syntax-ns#"
   xmlns:svg="http://www.w3.org/2000/svg"
   xmlns="http://www.w3.org/2000/svg"
   xmlns:sodipodi="http://sodipodi.sourceforge.net/DTD/sodipodi-0.dtd"
   xmlns:inkscape="http://www.inkscape.org/namespaces/inkscape"
   width="32px"
   height="26px"
   viewBox="0 0 32 26"
   version="1.1"
   id="svg9"
   sodipodi:docname="crown-double-locked.svg"
   inkscape:version="0.92.5 (2060ec1f9f, 2020-04-08)">
  <metadata
     id="metadata15">
    <rdf:RDF>
      <cc:Work
         rdf:about="">
        <dc:format>image/svg+xml</dc:format>
        <dc:type
           rdf:resource="http://purl.org/dc/dcmitype/StillImage" />
        <dc:title>juicy-crown-locked</dc:title>
      </cc:Work>
    </rdf:RDF>
  </metadata>
  <defs
     id="defs13" />
  <sodipodi:namedview
     pagecolor="#ffffff"
     bordercolor="#666666"
     borderopacity="1"
     objecttolerance="10"
     gridtolerance="10"
     guidetolerance="10"
     inkscape:pageopacity="0"
     inkscape:pageshadow="2"
     inkscape:window-width="2560"
     inkscape:window-height="1375"
     id="namedview11"
     showgrid="false"
     inkscape:pagecheckerboard="true"
     inkscape:zoom="34.75"
     inkscape:cx="10.63464"
     inkscape:cy="13.250725"
     inkscape:window-x="0"
     inkscape:window-y="0"
     inkscape:window-maximized="1"
     inkscape:current-layer="juicy-crown-locked" />
  <title
     id="title2">juicy-crown-locked</title>
  <desc
     id="desc4">Created with Sketch.</desc>
  <g
     id="Page-1"
     stroke="none"
     stroke-width="1"
     fill="none"
     fill-rule="evenodd">
    <g
       id="juicy-crown-locked"
       transform="translate(1.000000, 1.000000)"
       fill="#E5E5E5"
       fill-rule="nonzero"
       stroke="#F0F0F0"
       stroke-width="2"
       style="fill:#3c3c3c;fill-opacity:1;stroke:#202020;stroke-opacity:1">
      <path
         d="M7.756,6.993 L12.632,1.882 C13.2378543,1.2469304 14.0729018,0.881084131 14.9504851,0.866238503 C15.8280684,0.851392876 16.6750122,1.18878575 17.302,1.803 L22.594,6.989 L25.437,4.728 C26.2761293,4.06050369 27.4491145,4.00759997 28.3449252,4.59684738 C29.2407359,5.1860948 29.656646,6.28414389 29.376,7.319 L25.67,20.971 C25.3391114,22.1908879 24.2319674,23.0380001 22.968,23.0380001 L6.908,23.0380001 C5.64366103,23.0382922 4.53598585,22.1912465 4.205,20.971 L0.555,7.518 C0.260731262,6.43355938 0.685695545,5.28174032 1.61378175,4.64828824 C2.54186795,4.01483615 3.76934805,4.03880272 4.672,4.708 L7.755,6.993 L7.756,6.993 Z"
         id="Path"
         style="fill:#505050;fill-opacity:1;stroke:#202020;stroke-opacity:1" />
    </g>
  </g>
</svg>
