<?xml version="1.0" encoding="UTF-8" standalone="no"?>
<svg
   xmlns:dc="http://purl.org/dc/elements/1.1/"
   xmlns:cc="http://creativecommons.org/ns#"
   xmlns:rdf="http://www.w3.org/1999/02/22-rdf-syntax-ns#"
   xmlns:svg="http://www.w3.org/2000/svg"
   xmlns="http://www.w3.org/2000/svg"
   xmlns:sodipodi="http://sodipodi.sourceforge.net/DTD/sodipodi-0.dtd"
   xmlns:inkscape="http://www.inkscape.org/namespaces/inkscape"
   width="46"
   height="46"
   viewBox="0 0 46 46"
   version="1.1"
   id="svg12"
   sodipodi:docname="words.svg"
   inkscape:version="0.92.5 (2060ec1f9f, 2020-04-08)">
  <metadata
     id="metadata18">
    <rdf:RDF>
      <cc:Work
         rdf:about="">
        <dc:format>image/svg+xml</dc:format>
        <dc:type
           rdf:resource="http://purl.org/dc/dcmitype/StillImage" />
        <dc:title>tab_words_inactive</dc:title>
      </cc:Work>
    </rdf:RDF>
  </metadata>
  <defs
     id="defs16" />
  <sodipodi:namedview
     pagecolor="#ffffff"
     bordercolor="#666666"
     borderopacity="1"
     objecttolerance="10"
     gridtolerance="10"
     guidetolerance="10"
     inkscape:pageopacity="0"
     inkscape:pageshadow="2"
     inkscape:window-width="2560"
     inkscape:window-height="1369"
     id="namedview14"
     showgrid="false"
     inkscape:pagecheckerboard="true"
     inkscape:zoom="5.1304348"
     inkscape:cx="-43.271186"
     inkscape:cy="23"
     inkscape:window-x="0"
     inkscape:window-y="0"
     inkscape:window-maximized="1"
     inkscape:current-layer="g10" />
  <title
     id="title2">tab_words_inactive</title>
  <g
     stroke="none"
     stroke-width="1"
     fill="none"
     fill-rule="evenodd"
     id="g10">
    <g
       transform="translate(3 4)"
       fill="#FFF"
       stroke="#AFAFAF"
       stroke-width="2.6"
       id="g8"
       style="fill:#202020;fill-opacity:1">
      <rect
         x="10.487"
         y="12.707"
         width="26.693"
         height="20.993"
         rx="5.2"
         id="rect4"
         style="fill:#202020;fill-opacity:1" />
      <path
         d="M5.572 6.5a3.9 3.9 0 0 0-2.97 4.48L4.91 23.972a3.9 3.9 0 0 0 4.516 3.162l18.607-3.261h.003a3.9 3.9 0 0 0 3.162-4.52L28.89 6.362A3.9 3.9 0 0 0 24.374 3.2L5.572 6.5z"
         id="path6"
         style="fill:#202020;fill-opacity:1" />
    </g>
  </g>
</svg>
